(footprint "Diodes_UDFN2020-6_Type-B" (version 20211014) (generator pcbnew)
  (layer "F.Cu")
  (tedit 5F0E175D)
  (descr "U-DFN2020-6 (Type F) (https://www.diodes.com/assets/Package-Files/U-DFN2020-6-Type-F.pdf) ")
  (tags "U-DFN2020-6 (Type F)")
  (attr smd)
  (fp_text reference "REF**" (at 0 -2) (layer "F.SilkS")
    (effects (font (size 1 1) (thickness 0.15)))
    (tstamp 7aa33dee-ea98-4186-aac7-9d9d25e477c3)
  )
  (fp_text value "Diodes_UDFN2020-6_Type-B" (at 0 2) (layer "F.Fab")
    (effects (font (size 1 1) (thickness 0.15)))
    (tstamp 228b8363-f933-4722-8c3a-441357691b7f)
  )
  (fp_text user "${REFERENCE}" (at 0 0.1) (layer "F.Fab")
    (effects (font (size 0.3 0.3) (thickness 0.05)))
    (tstamp 88a5968c-188f-4f69-bbbc-dcd6e4319512)
  )
  (fp_line (start 1 1.15) (end -1 1.15) (layer "F.SilkS") (width 0.12) (tstamp 1f179f8d-89f9-4a9a-9724-79e4ed2d7516))
  (fp_line (start 1 -1.15) (end 0 -1.15) (layer "F.SilkS") (width 0.12) (tstamp 6801717f-72c3-4515-8bf6-32be632576dd))
  (fp_line (start 1.4 1.25) (end 1.4 -1.25) (layer "F.CrtYd") (width 0.05) (tstamp 019b8f25-c3aa-4c40-80ce-f430116daf65))
  (fp_line (start 1.4 -1.25) (end -1.4 -1.25) (layer "F.CrtYd") (width 0.05) (tstamp 1439ce29-61e6-43cb-9d85-c5c70a88d088))
  (fp_line (start -1.4 -1.25) (end -1.4 1.25) (layer "F.CrtYd") (width 0.05) (tstamp 23e01a88-1652-460b-931b-1c4ec754ac6f))
  (fp_line (start -1.4 1.25) (end 1.4 1.25) (layer "F.CrtYd") (width 0.05) (tstamp eb2a1166-c730-402e-a4c4-bedb50fd3180))
  (fp_line (start 1 -1) (end 1 1) (layer "F.Fab") (width 0.1) (tstamp 2851bd94-d7f2-4c14-879d-ea82703b4343))
  (fp_line (start -0.5 -1) (end -1 -0.5) (layer "F.Fab") (width 0.1) (tstamp 3d4b8521-90c9-4048-a4a2-df65fb0ccf4a))
  (fp_line (start 1 1) (end -1 1) (layer "F.Fab") (width 0.1) (tstamp 413295ad-0592-4f0d-b37c-1a50b2710e7c))
  (fp_line (start -1 1) (end -1 -0.5) (layer "F.Fab") (width 0.1) (tstamp ebd1ca44-43ae-400a-90c0-1bd94b466fd0))
  (fp_line (start -0.5 -1) (end 1 -1) (layer "F.Fab") (width 0.1) (tstamp faaef780-d126-481b-b1f9-6cfd2af962f5))
  (pad "D1" smd rect (at 0 -0.525) (size 1 0.6) (layers "F.Cu" "F.Paste" "F.Mask") (tstamp 609f45f4-c0f3-45d8-b017-32b5d5fcebe1))
  (pad "D1" smd rect (at 0.9 -0.65) (size 0.5 0.35) (layers "F.Cu" "F.Paste" "F.Mask") (tstamp 7d8ea5f9-3999-4643-80cc-2d5eecbcdd46))
  (pad "D2" smd rect (at -0.9 0.65) (size 0.5 0.35) (layers "F.Cu" "F.Paste" "F.Mask") (tstamp 32d21c1b-f187-45b7-ab37-2bb9c4d40541))
  (pad "D2" smd rect (at 0 0.525) (size 1 0.6) (layers "F.Cu" "F.Paste" "F.Mask") (tstamp 56144dcf-5c29-409e-a1f9-ea6e8d005d9e))
  (pad "G1" smd rect (at -0.9 0) (size 0.5 0.35) (layers "F.Cu" "F.Paste" "F.Mask") (tstamp 000fc13b-c83a-4d6c-8892-e2caac2284e2))
  (pad "G2" smd rect (at 0.9 0) (size 0.5 0.35) (layers "F.Cu" "F.Paste" "F.Mask") (tstamp 1080d5b1-6676-431d-956b-60aa39e8ad73))
  (pad "S1" smd rect (at -0.9 -0.65) (size 0.5 0.35) (layers "F.Cu" "F.Paste" "F.Mask") (tstamp 398ad195-2a11-4e55-986d-a186e3a89542))
  (pad "S2" smd rect (at 0.9 0.65) (size 0.5 0.35) (layers "F.Cu" "F.Paste" "F.Mask") (tstamp 152e8dc7-c54f-4f05-aee5-e4a615ee9712))
  (model "/home/solomon/code/earring-v3/pcb/3dmodels/SOT1118.step"
    (offset (xyz 1.57 -0.725 1))
    (scale (xyz 1 1 1))
    (rotate (xyz 90 0 -90))
  )
)
