(footprint "STM32WB5MMGH6TR_2" (version 20211014) (generator pcbnew)
  (layer "F.Cu")
  (tedit 0)
  (attr through_hole)
  (fp_text reference "REF**" (at 0 0) (layer "F.SilkS")
    (effects (font (size 1 1) (thickness 0.15)))
    (tstamp 154a66f9-a059-4125-b544-84874747bb8e)
  )
  (fp_text value "SIP-LGA86_STM" (at 0 0) (layer "F.SilkS")
    (effects (font (size 1 1) (thickness 0.15)))
    (tstamp 0945f283-3d50-4ac1-9443-3f2621b9c30b)
  )
  (fp_text user "*" (at -2.85 -1.900002) (layer "F.Fab")
    (effects (font (size 1 1) (thickness 0.15)))
    (tstamp 8716d578-a270-44aa-bcf1-34b98318e494)
  )
  (fp_line (start 3.777 -5.626999) (end 3.777 5.626999) (layer "F.SilkS") (width 0.12) (tstamp 207dbbd6-b03f-4a00-aa6f-245b22950aa4))
  (fp_line (start -3.777 5.626999) (end -3.777 -5.626999) (layer "F.SilkS") (width 0.12) (tstamp 94f114e1-f136-47f2-9e34-b0c77d9dd71e))
  (fp_line (start -3.777 -5.626999) (end 3.777 -5.626999) (layer "F.SilkS") (width 0.12) (tstamp d5afb214-f976-4715-a498-d2f5b9e0a1a7))
  (fp_line (start 3.777 5.626999) (end 3.534374 5.626999) (layer "F.SilkS") (width 0.12) (tstamp f095522b-9853-43ad-b337-31063200c004))
  (fp_line (start -3.534374 5.626999) (end -3.777 5.626999) (layer "F.SilkS") (width 0.12) (tstamp fd5811bc-5eb3-44d9-96b2-95070f0e7a0f))
  (fp_line (start 3.904 -5.753999) (end -3.904 -5.753999) (layer "F.CrtYd") (width 0.05) (tstamp 064dab78-e4dd-4152-ad0e-05e7b92e93c0))
  (fp_line (start 3.904 5.753999) (end 3.904 -5.753999) (layer "F.CrtYd") (width 0.05) (tstamp 74a28a3e-6dc5-4c68-b8d1-05bb045887e6))
  (fp_line (start -3.904 -5.753999) (end -3.904 5.753999) (layer "F.CrtYd") (width 0.05) (tstamp 9f7afca6-5a3b-4074-800a-d7452e829442))
  (fp_line (start -3.904 5.753999) (end 3.904 5.753999) (layer "F.CrtYd") (width 0.05) (tstamp ed365d67-38c4-4dc0-a51e-b8563a31fe56))
  (fp_line (start 3.65 5.499999) (end 3.65 -5.499999) (layer "F.Fab") (width 0.1) (tstamp 1381e68d-da30-4bd6-96b0-76262e6c410e))
  (fp_line (start 3.65 -5.499999) (end -3.65 -5.499999) (layer "F.Fab") (width 0.1) (tstamp 14b6c6e5-21c9-4909-a5a0-0d1e0238927b))
  (fp_line (start -3.65 -5.499999) (end -3.65 5.499999) (layer "F.Fab") (width 0.1) (tstamp 3744ede8-dbfe-47c7-8413-734df38939ed))
  (fp_line (start -3.65 5.499999) (end 3.65 5.499999) (layer "F.Fab") (width 0.1) (tstamp 6a3a2156-d8b8-47fc-8f64-8ca214bdfc2f))
  (pad "1" smd rect (at -3.175 -2.075001) (size 0.350012 0.350012) (layers "F.Cu" "F.Paste" "F.Mask") (tstamp 5b610b1a-37e0-45e2-8f0a-90369e65d025))
  (pad "2" smd rect (at -3.175 -1.600001) (size 0.35 0.3) (layers "F.Cu" "F.Paste" "F.Mask") (tstamp 243a1b87-22ad-4310-919e-46c39075af73))
  (pad "3" smd rect (at -3.175 -1.15) (size 0.35 0.3) (layers "F.Cu" "F.Paste" "F.Mask") (tstamp af88491c-ef20-42d7-8d1a-27150ab36a1b))
  (pad "4" smd rect (at -3.175 -0.700001) (size 0.35 0.3) (layers "F.Cu" "F.Paste" "F.Mask") (tstamp 2199d485-1c23-4d85-9500-52df687331f2))
  (pad "5" smd rect (at -3.175 -0.250001) (size 0.35 0.3) (layers "F.Cu" "F.Paste" "F.Mask") (tstamp aafe9358-7ce6-47b5-8f57-c7ce8f7f5d91))
  (pad "6" smd rect (at -3.175 0.2) (size 0.35 0.3) (layers "F.Cu" "F.Paste" "F.Mask") (tstamp c225eb38-a3f6-45cc-9e40-083f5b86bca3))
  (pad "7" smd rect (at -3.175 0.649999) (size 0.35 0.3) (layers "F.Cu" "F.Paste" "F.Mask") (tstamp 3bb177f6-afb2-4a4d-be49-f23184b43f75))
  (pad "8" smd rect (at -3.175 1.100001) (size 0.35 0.3) (layers "F.Cu" "F.Paste" "F.Mask") (tstamp b46df7ac-4214-4538-92e5-16514ed00238))
  (pad "9" smd rect (at -3.175 1.55) (size 0.35 0.3) (layers "F.Cu" "F.Paste" "F.Mask") (tstamp 5eda577c-791c-4331-9759-0863190801e1))
  (pad "10" smd rect (at -3.175 1.999999) (size 0.35 0.3) (layers "F.Cu" "F.Paste" "F.Mask") (tstamp 0465b9cb-195c-4d8e-a5e7-a95edf6e5e9e))
  (pad "11" smd rect (at -3.175 2.450001) (size 0.35 0.3) (layers "F.Cu" "F.Paste" "F.Mask") (tstamp 536606b5-b27a-4cd3-a22f-25deb7140f1e))
  (pad "12" smd rect (at -3.175 2.9) (size 0.35 0.3) (layers "F.Cu" "F.Paste" "F.Mask") (tstamp ebe7410f-5d30-4dd3-95c3-9f5a45c98af8))
  (pad "13" smd rect (at -3.175 3.350001) (size 0.35 0.3) (layers "F.Cu" "F.Paste" "F.Mask") (tstamp a3516de8-89ce-475c-934c-65d03fa535b3))
  (pad "14" smd rect (at -3.175 3.800001) (size 0.35 0.3) (layers "F.Cu" "F.Paste" "F.Mask") (tstamp 330e04eb-094d-4a4c-b893-1ce484f431fe))
  (pad "15" smd rect (at -3.175 4.25) (size 0.35 0.3) (layers "F.Cu" "F.Paste" "F.Mask") (tstamp d2432ccc-9cab-4bad-8135-086537d05ea2))
  (pad "16" smd rect (at -3.175 4.700001) (size 0.35 0.3) (layers "F.Cu" "F.Paste" "F.Mask") (tstamp 8cbc8fa4-c975-4ddb-a787-5da291785266))
  (pad "17" smd rect (at -3.175 5.175002 90) (size 0.350012 0.350012) (layers "F.Cu" "F.Paste" "F.Mask") (tstamp b6b69cfe-93db-45c7-b43a-12f5ea4040a3))
  (pad "18" smd rect (at -2.7 5.175002 90) (size 0.35 0.3) (layers "F.Cu" "F.Paste" "F.Mask") (tstamp 16b33d21-a908-4f3d-8c52-6c4413aaf2bb))
  (pad "19" smd rect (at -2.250001 5.175002 90) (size 0.35 0.3) (layers "F.Cu" "F.Paste" "F.Mask") (tstamp 30d650b4-1a8d-46de-bb5d-ded8d85be97d))
  (pad "20" smd rect (at -1.800001 5.175002 90) (size 0.35 0.3) (layers "F.Cu" "F.Paste" "F.Mask") (tstamp 56f9091b-0954-42d1-8b45-0a1224e4b7bd))
  (pad "21" smd rect (at -1.35 5.175002 90) (size 0.35 0.3) (layers "F.Cu" "F.Paste" "F.Mask") (tstamp 77e894db-f43c-448f-a88f-18e49aab86f4))
  (pad "22" smd rect (at -0.900001 5.175002 90) (size 0.35 0.3) (layers "F.Cu" "F.Paste" "F.Mask") (tstamp d7c6f583-9018-4538-bf79-e5fe1512edf2))
  (pad "23" smd rect (at -0.449999 5.175002 90) (size 0.35 0.3) (layers "F.Cu" "F.Paste" "F.Mask") (tstamp 512861ba-177e-4ede-a2ca-0ccd5dfd4a11))
  (pad "24" smd rect (at 0 5.175002 90) (size 0.35 0.3) (layers "F.Cu" "F.Paste" "F.Mask") (tstamp 9a4c4dfb-3da8-4972-9251-9e47e9471930))
  (pad "25" smd rect (at 0.449999 5.175002 90) (size 0.35 0.3) (layers "F.Cu" "F.Paste" "F.Mask") (tstamp 52441609-0f89-4880-87ef-839af57c69ad))
  (pad "26" smd rect (at 0.900001 5.175002 90) (size 0.35 0.3) (layers "F.Cu" "F.Paste" "F.Mask") (tstamp 0118ead8-f140-4fb8-9674-27fed59253ae))
  (pad "27" smd rect (at 1.35 5.175002 90) (size 0.35 0.3) (layers "F.Cu" "F.Paste" "F.Mask") (tstamp 511f9c86-f04a-4f8b-b577-4c847ba89e8c))
  (pad "28" smd rect (at 1.800001 5.175002 90) (size 0.35 0.3) (layers "F.Cu" "F.Paste" "F.Mask") (tstamp 84b7c842-f184-41a1-b972-1a0774712573))
  (pad "29" smd rect (at 2.250001 5.175002 90) (size 0.35 0.3) (layers "F.Cu" "F.Paste" "F.Mask") (tstamp 5e36f45f-9325-4108-917d-945213917b83))
  (pad "30" smd rect (at 2.7 5.175002 90) (size 0.35 0.3) (layers "F.Cu" "F.Paste" "F.Mask") (tstamp fd8ea7c4-da82-40c8-b04d-d1825496d4d9))
  (pad "31" smd rect (at 3.175 5.175002 90) (size 0.350012 0.350012) (layers "F.Cu" "F.Paste" "F.Mask") (tstamp 60c1667b-2370-4ba4-9980-0696ddbd70aa))
  (pad "32" smd rect (at 3.175 4.700001) (size 0.35 0.3) (layers "F.Cu" "F.Paste" "F.Mask") (tstamp c89f90b7-f70b-4253-87da-fbc3b9a529fc))
  (pad "33" smd rect (at 3.175 4.25) (size 0.35 0.3) (layers "F.Cu" "F.Paste" "F.Mask") (tstamp e04cec37-db0c-48b2-a08a-9977ee09b4c9))
  (pad "34" smd rect (at 3.175 3.800001) (size 0.35 0.3) (layers "F.Cu" "F.Paste" "F.Mask") (tstamp 1aab4cea-2b0a-481b-bc84-97a9ba491400))
  (pad "35" smd rect (at 3.175 3.350001) (size 0.35 0.3) (layers "F.Cu" "F.Paste" "F.Mask") (tstamp 16504213-5665-4880-b12f-383b44c58eaf))
  (pad "36" smd rect (at 3.175 2.9) (size 0.35 0.3) (layers "F.Cu" "F.Paste" "F.Mask") (tstamp e8931833-cf44-4291-b5ef-14f9c3299c40))
  (pad "37" smd rect (at 3.175 2.450001) (size 0.35 0.3) (layers "F.Cu" "F.Paste" "F.Mask") (tstamp b31862e3-8297-4fee-bef2-24096b8deb42))
  (pad "38" smd rect (at 3.175 1.999999) (size 0.35 0.3) (layers "F.Cu" "F.Paste" "F.Mask") (tstamp b20b96d5-f731-4c75-b3a4-a9e8fd988162))
  (pad "39" smd rect (at 3.175 1.55) (size 0.35 0.3) (layers "F.Cu" "F.Paste" "F.Mask") (tstamp 7cd4ba62-ef9e-4ad1-adda-e46155aca396))
  (pad "40" smd rect (at 3.175 1.100001) (size 0.35 0.3) (layers "F.Cu" "F.Paste" "F.Mask") (tstamp 45757edf-4844-4a31-864b-4637089181c5))
  (pad "41" smd rect (at 3.175 0.649999) (size 0.35 0.3) (layers "F.Cu" "F.Paste" "F.Mask") (tstamp b026c973-a19e-4e2b-be77-1d62760e277f))
  (pad "42" smd rect (at 3.175 0.2) (size 0.35 0.3) (layers "F.Cu" "F.Paste" "F.Mask") (tstamp fc1b3587-703f-4513-a4ce-c8004e5f4844))
  (pad "43" smd rect (at 3.175 -0.250001) (size 0.35 0.3) (layers "F.Cu" "F.Paste" "F.Mask") (tstamp 1477ebac-83ba-4c6d-86e3-aefa3c1d6acc))
  (pad "44" smd rect (at 3.175 -0.700001) (size 0.35 0.3) (layers "F.Cu" "F.Paste" "F.Mask") (tstamp 0f105da2-f590-467f-adf1-22502d601eca))
  (pad "45" smd rect (at 3.175 -1.15) (size 0.35 0.3) (layers "F.Cu" "F.Paste" "F.Mask") (tstamp 2b54759d-2989-4f54-8a8b-7f8a2b3800dd))
  (pad "46" smd rect (at 3.175 -1.600001) (size 0.35 0.3) (layers "F.Cu" "F.Paste" "F.Mask") (tstamp 2e4f2c45-e385-4070-90fa-947f3a6e0a7a))
  (pad "47" smd rect (at 3.175 -2.075001) (size 0.350012 0.350012) (layers "F.Cu" "F.Paste" "F.Mask") (tstamp cc20fd69-ad7a-4eb4-8c6c-f2aa32eaa797))
  (pad "48" smd rect (at 2.7 -2.075002 90) (size 0.35 0.3) (layers "F.Cu" "F.Paste" "F.Mask") (tstamp 91bf0f4d-d0b2-4fbf-a38e-321f300b399f))
  (pad "49" smd rect (at 2.250001 -2.075002 90) (size 0.35 0.3) (layers "F.Cu" "F.Paste" "F.Mask") (tstamp 9fdb934e-d77e-4ea4-ae99-abccdc05564a))
  (pad "50" smd rect (at 1.800001 -2.075002 90) (size 0.35 0.3) (layers "F.Cu" "F.Paste" "F.Mask") (tstamp d0a31209-2046-428b-8509-e2a0e91e4323))
  (pad "51" smd rect (at 1.35 -2.075002 90) (size 0.35 0.3) (layers "F.Cu" "F.Paste" "F.Mask") (tstamp bcc16ae3-05ba-42e3-86f1-b92d867a89bf))
  (pad "52" smd rect (at 0.900001 -2.075002 90) (size 0.35 0.3) (layers "F.Cu" "F.Paste" "F.Mask") (tstamp f25c1516-6359-45f7-9b34-33612b614ceb))
  (pad "53" smd rect (at 0.449999 -2.075002 90) (size 0.35 0.3) (layers "F.Cu" "F.Paste" "F.Mask") (tstamp f5999874-d6df-48e3-a58e-fbb670892090))
  (pad "54" smd rect (at 0 -2.075002 90) (size 0.35 0.3) (layers "F.Cu" "F.Paste" "F.Mask") (tstamp deed4af5-aa1a-4c78-96f9-604cc3b75ce7))
  (pad "55" smd rect (at -0.449999 -2.075002 90) (size 0.35 0.3) (layers "F.Cu" "F.Paste" "F.Mask") (tstamp b6a5eaa2-095e-4d17-ba3c-b9297bd5caf1))
  (pad "56" smd rect (at -0.900001 -2.075002 90) (size 0.35 0.3) (layers "F.Cu" "F.Paste" "F.Mask") (tstamp ed3d3de5-4d49-40c4-a842-70ae6ccf8e56))
  (pad "57" smd rect (at -1.35 -2.075002 90) (size 0.35 0.3) (layers "F.Cu" "F.Paste" "F.Mask") (tstamp bde2a59e-e9d8-4f29-9451-62ed4b1ad8a3))
  (pad "58" smd rect (at -1.800001 -2.075002 90) (size 0.35 0.3) (layers "F.Cu" "F.Paste" "F.Mask") (tstamp 87070e15-f504-4c5b-9d38-5de0f88838ed))
  (pad "59" smd rect (at -2.250001 -2.075002 90) (size 0.35 0.3) (layers "F.Cu" "F.Paste" "F.Mask") (tstamp e7b3a6b4-b423-4b3c-b7ce-ed0c55a004e4))
  (pad "60" smd rect (at -2.7 -2.075002 90) (size 0.35 0.3) (layers "F.Cu" "F.Paste" "F.Mask") (tstamp 3d292cc1-aafa-4388-93f8-f4e20487f90a))
  (pad "61" smd rect (at -1.35 -0.700001) (size 0.599999 0.599999) (layers "F.Cu" "F.Paste" "F.Mask") (tstamp 57e72937-e1d7-4f15-810b-74ac2a0f763f))
  (pad "62" smd rect (at -1.35 0.199999) (size 0.599999 0.599999) (layers "F.Cu" "F.Paste" "F.Mask") (tstamp ca1bb772-6aeb-4bce-a965-92272d2991c7))
  (pad "63" smd rect (at -1.35 1.099999) (size 0.599999 0.599999) (layers "F.Cu" "F.Paste" "F.Mask") (tstamp 00b88ef2-f7c3-4b13-9445-a4863d757ea9))
  (pad "64" smd rect (at -1.35 1.999999) (size 0.599999 0.599999) (layers "F.Cu" "F.Paste" "F.Mask") (tstamp da31143a-82a2-4a19-99df-b433bdc06c73))
  (pad "65" smd rect (at -1.35 2.899999) (size 0.599999 0.599999) (layers "F.Cu" "F.Paste" "F.Mask") (tstamp ccce83ad-7e60-4d77-bc2f-46d52abbf91e))
  (pad "66" smd rect (at -1.35 3.799999) (size 0.599999 0.599999) (layers "F.Cu" "F.Paste" "F.Mask") (tstamp ec3c6a54-6e60-4c7c-8824-687e5e6b9093))
  (pad "67" smd rect (at -0.45 3.799999) (size 0.599999 0.599999) (layers "F.Cu" "F.Paste" "F.Mask") (tstamp 60fc3540-75d7-4c78-bb6a-0a24d0dbb707))
  (pad "68" smd rect (at 0.45 3.799999) (size 0.599999 0.599999) (layers "F.Cu" "F.Paste" "F.Mask") (tstamp 86fa8bc8-795d-49b1-87c1-4f301630a0e3))
  (pad "69" smd rect (at 1.35 3.799999) (size 0.599999 0.599999) (layers "F.Cu" "F.Paste" "F.Mask") (tstamp 65443965-db53-42ad-bbd4-115f9f7823be))
  (pad "70" smd rect (at 1.35 2.899999) (size 0.599999 0.599999) (layers "F.Cu" "F.Paste" "F.Mask") (tstamp db4303f8-a247-4df4-8c55-69e3f519d7d2))
  (pad "71" smd rect (at 1.35 1.999999) (size 0.599999 0.599999) (layers "F.Cu" "F.Paste" "F.Mask") (tstamp 31228b0e-21ac-4ff0-8dd5-3eeca0ee0e4c))
  (pad "72" smd rect (at 1.35 1.099999) (size 0.599999 0.599999) (layers "F.Cu" "F.Paste" "F.Mask") (tstamp f97d3ce6-86ad-4925-b3f9-1155a5ce3eac))
  (pad "73" smd rect (at 1.35 0.199999) (size 0.599999 0.599999) (layers "F.Cu" "F.Paste" "F.Mask") (tstamp 3f3581cf-c01a-47cd-b8e3-aac2793fb9b6))
  (pad "74" smd rect (at 1.35 -0.700001) (size 0.599999 0.599999) (layers "F.Cu" "F.Paste" "F.Mask") (tstamp 39718e72-fb8f-4fa1-86a5-02fb56a84775))
  (pad "75" smd rect (at 0.45 -0.700001) (size 0.599999 0.599999) (layers "F.Cu" "F.Paste" "F.Mask") (tstamp 019ef7a7-04d4-4365-9c46-83caec6675e8))
  (pad "76" smd rect (at -0.45 -0.700001) (size 0.599999 0.599999) (layers "F.Cu" "F.Paste" "F.Mask") (tstamp df971812-e489-4d63-8e7f-27d61278b388))
  (pad "77" smd rect (at -0.45 0.199999) (size 0.599999 0.599999) (layers "F.Cu" "F.Paste" "F.Mask") (tstamp ff1112d8-0f60-4d72-a11a-9398f0b2d21a))
  (pad "78" smd rect (at -0.45 1.099999) (size 0.599999 0.599999) (layers "F.Cu" "F.Paste" "F.Mask") (tstamp 2e7b322f-3391-4ea3-867f-cc20ca0ae3c4))
  (pad "79" smd rect (at -0.45 1.999999) (size 0.599999 0.599999) (layers "F.Cu" "F.Paste" "F.Mask") (tstamp 08d958d8-6439-41c3-86b6-952a0defc026))
  (pad "80" smd rect (at -0.45 2.899999) (size 0.599999 0.599999) (layers "F.Cu" "F.Paste" "F.Mask") (tstamp 90ef752c-442a-4442-b887-5cf24f647169))
  (pad "81" smd rect (at 0.45 2.899999) (size 0.599999 0.599999) (layers "F.Cu" "F.Paste" "F.Mask") (tstamp 888ecfd4-1779-4aa6-9e6c-6be11b2456fa))
  (pad "82" smd rect (at 0.45 1.999999) (size 0.599999 0.599999) (layers "F.Cu" "F.Paste" "F.Mask") (tstamp 0072d74b-2274-43ac-8917-67f892b9c4ae))
  (pad "83" smd rect (at 0.45 1.099999) (size 0.599999 0.599999) (layers "F.Cu" "F.Paste" "F.Mask") (tstamp 6fbafe15-060d-49d7-8141-70349b752a33))
  (pad "84" smd rect (at 0.45 0.199999) (size 0.599999 0.599999) (layers "F.Cu" "F.Paste" "F.Mask") (tstamp 22094e82-4060-4987-b4ec-cbed1ff0c943))
  (pad "85" smd rect (at -3.05 -5.035001) (size 0.429997 0.429997) (layers "F.Cu" "F.Paste" "F.Mask") (tstamp 93bda3df-c6a1-44b1-9ce0-61e7d758cfc8))
  (pad "86" smd rect (at 3.05 -5.035001) (size 0.429997 0.429997) (layers "F.Cu" "F.Paste" "F.Mask") (tstamp 38f89df6-e56d-4d6d-8cea-dea0c561443f))
)
