%TF.GenerationSoftware,KiCad,Pcbnew,(6.0.7)*%
%TF.CreationDate,2022-07-28T17:40:10-04:00*%
%TF.ProjectId,earring-batboard,65617272-696e-4672-9d62-6174626f6172,rev?*%
%TF.SameCoordinates,Original*%
%TF.FileFunction,Drillmap*%
%TF.FilePolarity,Positive*%
%FSLAX45Y45*%
G04 Gerber Fmt 4.5, Leading zero omitted, Abs format (unit mm)*
G04 Created by KiCad (PCBNEW (6.0.7)) date 2022-07-28 17:40:10*
%MOMM*%
%LPD*%
G01*
G04 APERTURE LIST*
%ADD10C,0.200000*%
%ADD11C,0.085000*%
G04 APERTURE END LIST*
D10*
X13244600Y-8459029D02*
X13944600Y-8459029D01*
X13244600Y-10883900D02*
X13944600Y-10883900D01*
X12194600Y-11490118D02*
X12894600Y-11490118D01*
X13944600Y-8459029D02*
X14294600Y-9065247D01*
X12194600Y-7852811D02*
X11844600Y-8459029D01*
X14294600Y-9065247D02*
X13944600Y-9671464D01*
X11144600Y-8459029D02*
X11844600Y-8459029D01*
X14294600Y-10277682D02*
X13944600Y-10883900D01*
X11144600Y-9671464D02*
X10944600Y-10017875D01*
X13944600Y-9671464D02*
X14294600Y-10277682D01*
X11844600Y-10883900D02*
X12194600Y-11490118D01*
X10794600Y-9065247D02*
X11144600Y-9671464D01*
X13244600Y-10883900D02*
X12894600Y-11490118D01*
X11444600Y-10883900D02*
X11844600Y-10883900D01*
X12194600Y-7852811D02*
X12894600Y-7852811D01*
X11444600Y-10883900D02*
X11094600Y-10277682D01*
X10944600Y-10017875D02*
X11094600Y-10277682D01*
X11144600Y-8459029D02*
X10794600Y-9065247D01*
X12894600Y-7852811D02*
X13244600Y-8459029D01*
D11*
X12352100Y-11296060D02*
X12437100Y-11381060D01*
X12437100Y-11296060D02*
X12352100Y-11381060D01*
X12652100Y-11296060D02*
X12737100Y-11381060D01*
X12737100Y-11296060D02*
X12652100Y-11381060D01*
D10*
X11042219Y-11810594D02*
X11042219Y-11610594D01*
X11089838Y-11610594D01*
X11118410Y-11620118D01*
X11137457Y-11639165D01*
X11146981Y-11658213D01*
X11156505Y-11696308D01*
X11156505Y-11724880D01*
X11146981Y-11762975D01*
X11137457Y-11782022D01*
X11118410Y-11801070D01*
X11089838Y-11810594D01*
X11042219Y-11810594D01*
X11242219Y-11810594D02*
X11242219Y-11677261D01*
X11242219Y-11715356D02*
X11251743Y-11696308D01*
X11261267Y-11686784D01*
X11280314Y-11677261D01*
X11299362Y-11677261D01*
X11366028Y-11810594D02*
X11366028Y-11677261D01*
X11366028Y-11610594D02*
X11356505Y-11620118D01*
X11366028Y-11629642D01*
X11375552Y-11620118D01*
X11366028Y-11610594D01*
X11366028Y-11629642D01*
X11489838Y-11810594D02*
X11470790Y-11801070D01*
X11461267Y-11782022D01*
X11461267Y-11610594D01*
X11594600Y-11810594D02*
X11575552Y-11801070D01*
X11566028Y-11782022D01*
X11566028Y-11610594D01*
X11823171Y-11810594D02*
X11823171Y-11610594D01*
X11889838Y-11753451D01*
X11956505Y-11610594D01*
X11956505Y-11810594D01*
X12137457Y-11810594D02*
X12137457Y-11705832D01*
X12127933Y-11686784D01*
X12108886Y-11677261D01*
X12070790Y-11677261D01*
X12051743Y-11686784D01*
X12137457Y-11801070D02*
X12118409Y-11810594D01*
X12070790Y-11810594D01*
X12051743Y-11801070D01*
X12042219Y-11782022D01*
X12042219Y-11762975D01*
X12051743Y-11743927D01*
X12070790Y-11734403D01*
X12118409Y-11734403D01*
X12137457Y-11724880D01*
X12232695Y-11677261D02*
X12232695Y-11877261D01*
X12232695Y-11686784D02*
X12251743Y-11677261D01*
X12289838Y-11677261D01*
X12308886Y-11686784D01*
X12318409Y-11696308D01*
X12327933Y-11715356D01*
X12327933Y-11772499D01*
X12318409Y-11791546D01*
X12308886Y-11801070D01*
X12289838Y-11810594D01*
X12251743Y-11810594D01*
X12232695Y-11801070D01*
X12413648Y-11791546D02*
X12423171Y-11801070D01*
X12413648Y-11810594D01*
X12404124Y-11801070D01*
X12413648Y-11791546D01*
X12413648Y-11810594D01*
X12413648Y-11686784D02*
X12423171Y-11696308D01*
X12413648Y-11705832D01*
X12404124Y-11696308D01*
X12413648Y-11686784D01*
X12413648Y-11705832D01*
D11*
X10699600Y-12097618D02*
X10784600Y-12182618D01*
X10784600Y-12097618D02*
X10699600Y-12182618D01*
D10*
X11080314Y-12030594D02*
X11099362Y-12030594D01*
X11118410Y-12040118D01*
X11127933Y-12049642D01*
X11137457Y-12068689D01*
X11146981Y-12106784D01*
X11146981Y-12154403D01*
X11137457Y-12192499D01*
X11127933Y-12211546D01*
X11118410Y-12221070D01*
X11099362Y-12230594D01*
X11080314Y-12230594D01*
X11061267Y-12221070D01*
X11051743Y-12211546D01*
X11042219Y-12192499D01*
X11032695Y-12154403D01*
X11032695Y-12106784D01*
X11042219Y-12068689D01*
X11051743Y-12049642D01*
X11061267Y-12040118D01*
X11080314Y-12030594D01*
X11232695Y-12211546D02*
X11242219Y-12221070D01*
X11232695Y-12230594D01*
X11223171Y-12221070D01*
X11232695Y-12211546D01*
X11232695Y-12230594D01*
X11356505Y-12116308D02*
X11337457Y-12106784D01*
X11327933Y-12097261D01*
X11318409Y-12078213D01*
X11318409Y-12068689D01*
X11327933Y-12049642D01*
X11337457Y-12040118D01*
X11356505Y-12030594D01*
X11394600Y-12030594D01*
X11413648Y-12040118D01*
X11423171Y-12049642D01*
X11432695Y-12068689D01*
X11432695Y-12078213D01*
X11423171Y-12097261D01*
X11413648Y-12106784D01*
X11394600Y-12116308D01*
X11356505Y-12116308D01*
X11337457Y-12125832D01*
X11327933Y-12135356D01*
X11318409Y-12154403D01*
X11318409Y-12192499D01*
X11327933Y-12211546D01*
X11337457Y-12221070D01*
X11356505Y-12230594D01*
X11394600Y-12230594D01*
X11413648Y-12221070D01*
X11423171Y-12211546D01*
X11432695Y-12192499D01*
X11432695Y-12154403D01*
X11423171Y-12135356D01*
X11413648Y-12125832D01*
X11394600Y-12116308D01*
X11613648Y-12030594D02*
X11518409Y-12030594D01*
X11508886Y-12125832D01*
X11518409Y-12116308D01*
X11537457Y-12106784D01*
X11585076Y-12106784D01*
X11604124Y-12116308D01*
X11613648Y-12125832D01*
X11623171Y-12144880D01*
X11623171Y-12192499D01*
X11613648Y-12211546D01*
X11604124Y-12221070D01*
X11585076Y-12230594D01*
X11537457Y-12230594D01*
X11518409Y-12221070D01*
X11508886Y-12211546D01*
X11746981Y-12030594D02*
X11766028Y-12030594D01*
X11785076Y-12040118D01*
X11794600Y-12049642D01*
X11804124Y-12068689D01*
X11813648Y-12106784D01*
X11813648Y-12154403D01*
X11804124Y-12192499D01*
X11794600Y-12211546D01*
X11785076Y-12221070D01*
X11766028Y-12230594D01*
X11746981Y-12230594D01*
X11727933Y-12221070D01*
X11718409Y-12211546D01*
X11708886Y-12192499D01*
X11699362Y-12154403D01*
X11699362Y-12106784D01*
X11708886Y-12068689D01*
X11718409Y-12049642D01*
X11727933Y-12040118D01*
X11746981Y-12030594D01*
X11899362Y-12230594D02*
X11899362Y-12097261D01*
X11899362Y-12116308D02*
X11908886Y-12106784D01*
X11927933Y-12097261D01*
X11956505Y-12097261D01*
X11975552Y-12106784D01*
X11985076Y-12125832D01*
X11985076Y-12230594D01*
X11985076Y-12125832D02*
X11994600Y-12106784D01*
X12013648Y-12097261D01*
X12042219Y-12097261D01*
X12061267Y-12106784D01*
X12070790Y-12125832D01*
X12070790Y-12230594D01*
X12166028Y-12230594D02*
X12166028Y-12097261D01*
X12166028Y-12116308D02*
X12175552Y-12106784D01*
X12194600Y-12097261D01*
X12223171Y-12097261D01*
X12242219Y-12106784D01*
X12251743Y-12125832D01*
X12251743Y-12230594D01*
X12251743Y-12125832D02*
X12261267Y-12106784D01*
X12280314Y-12097261D01*
X12308886Y-12097261D01*
X12327933Y-12106784D01*
X12337457Y-12125832D01*
X12337457Y-12230594D01*
X12727933Y-12021070D02*
X12556505Y-12278213D01*
X12985076Y-12030594D02*
X13004124Y-12030594D01*
X13023171Y-12040118D01*
X13032695Y-12049642D01*
X13042219Y-12068689D01*
X13051743Y-12106784D01*
X13051743Y-12154403D01*
X13042219Y-12192499D01*
X13032695Y-12211546D01*
X13023171Y-12221070D01*
X13004124Y-12230594D01*
X12985076Y-12230594D01*
X12966028Y-12221070D01*
X12956505Y-12211546D01*
X12946981Y-12192499D01*
X12937457Y-12154403D01*
X12937457Y-12106784D01*
X12946981Y-12068689D01*
X12956505Y-12049642D01*
X12966028Y-12040118D01*
X12985076Y-12030594D01*
X13137457Y-12211546D02*
X13146981Y-12221070D01*
X13137457Y-12230594D01*
X13127933Y-12221070D01*
X13137457Y-12211546D01*
X13137457Y-12230594D01*
X13270790Y-12030594D02*
X13289838Y-12030594D01*
X13308886Y-12040118D01*
X13318409Y-12049642D01*
X13327933Y-12068689D01*
X13337457Y-12106784D01*
X13337457Y-12154403D01*
X13327933Y-12192499D01*
X13318409Y-12211546D01*
X13308886Y-12221070D01*
X13289838Y-12230594D01*
X13270790Y-12230594D01*
X13251743Y-12221070D01*
X13242219Y-12211546D01*
X13232695Y-12192499D01*
X13223171Y-12154403D01*
X13223171Y-12106784D01*
X13232695Y-12068689D01*
X13242219Y-12049642D01*
X13251743Y-12040118D01*
X13270790Y-12030594D01*
X13404124Y-12030594D02*
X13527933Y-12030594D01*
X13461267Y-12106784D01*
X13489838Y-12106784D01*
X13508886Y-12116308D01*
X13518409Y-12125832D01*
X13527933Y-12144880D01*
X13527933Y-12192499D01*
X13518409Y-12211546D01*
X13508886Y-12221070D01*
X13489838Y-12230594D01*
X13432695Y-12230594D01*
X13413648Y-12221070D01*
X13404124Y-12211546D01*
X13594600Y-12030594D02*
X13718409Y-12030594D01*
X13651743Y-12106784D01*
X13680314Y-12106784D01*
X13699362Y-12116308D01*
X13708886Y-12125832D01*
X13718409Y-12144880D01*
X13718409Y-12192499D01*
X13708886Y-12211546D01*
X13699362Y-12221070D01*
X13680314Y-12230594D01*
X13623171Y-12230594D01*
X13604124Y-12221070D01*
X13594600Y-12211546D01*
X13899362Y-12030594D02*
X13804124Y-12030594D01*
X13794600Y-12125832D01*
X13804124Y-12116308D01*
X13823171Y-12106784D01*
X13870790Y-12106784D01*
X13889838Y-12116308D01*
X13899362Y-12125832D01*
X13908886Y-12144880D01*
X13908886Y-12192499D01*
X13899362Y-12211546D01*
X13889838Y-12221070D01*
X13870790Y-12230594D01*
X13823171Y-12230594D01*
X13804124Y-12221070D01*
X13794600Y-12211546D01*
X13985076Y-12030594D02*
X13985076Y-12068689D01*
X14061267Y-12030594D02*
X14061267Y-12068689D01*
X14356505Y-12306784D02*
X14346981Y-12297261D01*
X14327933Y-12268689D01*
X14318409Y-12249642D01*
X14308886Y-12221070D01*
X14299362Y-12173451D01*
X14299362Y-12135356D01*
X14308886Y-12087737D01*
X14318409Y-12059165D01*
X14327933Y-12040118D01*
X14346981Y-12011546D01*
X14356505Y-12002022D01*
X14423171Y-12049642D02*
X14432695Y-12040118D01*
X14451743Y-12030594D01*
X14499362Y-12030594D01*
X14518409Y-12040118D01*
X14527933Y-12049642D01*
X14537457Y-12068689D01*
X14537457Y-12087737D01*
X14527933Y-12116308D01*
X14413648Y-12230594D01*
X14537457Y-12230594D01*
X14775552Y-12230594D02*
X14775552Y-12030594D01*
X14861267Y-12230594D02*
X14861267Y-12125832D01*
X14851743Y-12106784D01*
X14832695Y-12097261D01*
X14804124Y-12097261D01*
X14785076Y-12106784D01*
X14775552Y-12116308D01*
X14985076Y-12230594D02*
X14966028Y-12221070D01*
X14956505Y-12211546D01*
X14946981Y-12192499D01*
X14946981Y-12135356D01*
X14956505Y-12116308D01*
X14966028Y-12106784D01*
X14985076Y-12097261D01*
X15013648Y-12097261D01*
X15032695Y-12106784D01*
X15042219Y-12116308D01*
X15051743Y-12135356D01*
X15051743Y-12192499D01*
X15042219Y-12211546D01*
X15032695Y-12221070D01*
X15013648Y-12230594D01*
X14985076Y-12230594D01*
X15166028Y-12230594D02*
X15146981Y-12221070D01*
X15137457Y-12202022D01*
X15137457Y-12030594D01*
X15318409Y-12221070D02*
X15299362Y-12230594D01*
X15261267Y-12230594D01*
X15242219Y-12221070D01*
X15232695Y-12202022D01*
X15232695Y-12125832D01*
X15242219Y-12106784D01*
X15261267Y-12097261D01*
X15299362Y-12097261D01*
X15318409Y-12106784D01*
X15327933Y-12125832D01*
X15327933Y-12144880D01*
X15232695Y-12163927D01*
X15404124Y-12221070D02*
X15423171Y-12230594D01*
X15461267Y-12230594D01*
X15480314Y-12221070D01*
X15489838Y-12202022D01*
X15489838Y-12192499D01*
X15480314Y-12173451D01*
X15461267Y-12163927D01*
X15432695Y-12163927D01*
X15413648Y-12154403D01*
X15404124Y-12135356D01*
X15404124Y-12125832D01*
X15413648Y-12106784D01*
X15432695Y-12097261D01*
X15461267Y-12097261D01*
X15480314Y-12106784D01*
X15556505Y-12306784D02*
X15566028Y-12297261D01*
X15585076Y-12268689D01*
X15594600Y-12249642D01*
X15604124Y-12221070D01*
X15613648Y-12173451D01*
X15613648Y-12135356D01*
X15604124Y-12087737D01*
X15594600Y-12059165D01*
X15585076Y-12040118D01*
X15566028Y-12011546D01*
X15556505Y-12002022D01*
X15918409Y-12306784D02*
X15908886Y-12297261D01*
X15889838Y-12268689D01*
X15880314Y-12249642D01*
X15870790Y-12221070D01*
X15861267Y-12173451D01*
X15861267Y-12135356D01*
X15870790Y-12087737D01*
X15880314Y-12059165D01*
X15889838Y-12040118D01*
X15908886Y-12011546D01*
X15918409Y-12002022D01*
X15994600Y-12097261D02*
X15994600Y-12230594D01*
X15994600Y-12116308D02*
X16004124Y-12106784D01*
X16023171Y-12097261D01*
X16051743Y-12097261D01*
X16070790Y-12106784D01*
X16080314Y-12125832D01*
X16080314Y-12230594D01*
X16204124Y-12230594D02*
X16185076Y-12221070D01*
X16175552Y-12211546D01*
X16166028Y-12192499D01*
X16166028Y-12135356D01*
X16175552Y-12116308D01*
X16185076Y-12106784D01*
X16204124Y-12097261D01*
X16232695Y-12097261D01*
X16251743Y-12106784D01*
X16261267Y-12116308D01*
X16270790Y-12135356D01*
X16270790Y-12192499D01*
X16261267Y-12211546D01*
X16251743Y-12221070D01*
X16232695Y-12230594D01*
X16204124Y-12230594D01*
X16327933Y-12097261D02*
X16404124Y-12097261D01*
X16356505Y-12030594D02*
X16356505Y-12202022D01*
X16366028Y-12221070D01*
X16385076Y-12230594D01*
X16404124Y-12230594D01*
X16623171Y-12097261D02*
X16623171Y-12297261D01*
X16623171Y-12106784D02*
X16642219Y-12097261D01*
X16680314Y-12097261D01*
X16699362Y-12106784D01*
X16708886Y-12116308D01*
X16718409Y-12135356D01*
X16718409Y-12192499D01*
X16708886Y-12211546D01*
X16699362Y-12221070D01*
X16680314Y-12230594D01*
X16642219Y-12230594D01*
X16623171Y-12221070D01*
X16832695Y-12230594D02*
X16813648Y-12221070D01*
X16804124Y-12202022D01*
X16804124Y-12030594D01*
X16994600Y-12230594D02*
X16994600Y-12125832D01*
X16985076Y-12106784D01*
X16966029Y-12097261D01*
X16927933Y-12097261D01*
X16908886Y-12106784D01*
X16994600Y-12221070D02*
X16975552Y-12230594D01*
X16927933Y-12230594D01*
X16908886Y-12221070D01*
X16899362Y-12202022D01*
X16899362Y-12182975D01*
X16908886Y-12163927D01*
X16927933Y-12154403D01*
X16975552Y-12154403D01*
X16994600Y-12144880D01*
X17061267Y-12097261D02*
X17137457Y-12097261D01*
X17089838Y-12030594D02*
X17089838Y-12202022D01*
X17099362Y-12221070D01*
X17118410Y-12230594D01*
X17137457Y-12230594D01*
X17280314Y-12221070D02*
X17261267Y-12230594D01*
X17223171Y-12230594D01*
X17204124Y-12221070D01*
X17194600Y-12202022D01*
X17194600Y-12125832D01*
X17204124Y-12106784D01*
X17223171Y-12097261D01*
X17261267Y-12097261D01*
X17280314Y-12106784D01*
X17289838Y-12125832D01*
X17289838Y-12144880D01*
X17194600Y-12163927D01*
X17461267Y-12230594D02*
X17461267Y-12030594D01*
X17461267Y-12221070D02*
X17442219Y-12230594D01*
X17404124Y-12230594D01*
X17385076Y-12221070D01*
X17375552Y-12211546D01*
X17366029Y-12192499D01*
X17366029Y-12135356D01*
X17375552Y-12116308D01*
X17385076Y-12106784D01*
X17404124Y-12097261D01*
X17442219Y-12097261D01*
X17461267Y-12106784D01*
X17537457Y-12306784D02*
X17546981Y-12297261D01*
X17566029Y-12268689D01*
X17575552Y-12249642D01*
X17585076Y-12221070D01*
X17594600Y-12173451D01*
X17594600Y-12135356D01*
X17585076Y-12087737D01*
X17575552Y-12059165D01*
X17566029Y-12040118D01*
X17546981Y-12011546D01*
X17537457Y-12002022D01*
M02*
