%TF.GenerationSoftware,KiCad,Pcbnew,(6.0.7)*%
%TF.CreationDate,2022-07-28T17:31:18-04:00*%
%TF.ProjectId,earring-simple-charger,65617272-696e-4672-9d73-696d706c652d,rev?*%
%TF.SameCoordinates,Original*%
%TF.FileFunction,Copper,L2,Bot*%
%TF.FilePolarity,Positive*%
%FSLAX46Y46*%
G04 Gerber Fmt 4.6, Leading zero omitted, Abs format (unit mm)*
G04 Created by KiCad (PCBNEW (6.0.7)) date 2022-07-28 17:31:18*
%MOMM*%
%LPD*%
G01*
G04 APERTURE LIST*
%TA.AperFunction,ComponentPad*%
%ADD10O,2.100000X1.000000*%
%TD*%
%TA.AperFunction,ComponentPad*%
%ADD11O,1.600000X1.000000*%
%TD*%
%TA.AperFunction,ComponentPad*%
%ADD12C,3.500000*%
%TD*%
%TA.AperFunction,ViaPad*%
%ADD13C,0.800000*%
%TD*%
%TA.AperFunction,Conductor*%
%ADD14C,0.500000*%
%TD*%
%TA.AperFunction,Conductor*%
%ADD15C,0.250000*%
%TD*%
G04 APERTURE END LIST*
D10*
%TO.P,J1,S1,SHIELD*%
%TO.N,Net-(C1-Pad2)*%
X109810000Y-69340000D03*
D11*
X105630000Y-69340000D03*
D10*
X109810000Y-77980000D03*
D11*
X105630000Y-77980000D03*
%TD*%
D12*
%TO.P,BT1,1,+*%
%TO.N,Net-(BT1-Pad1)*%
X151787491Y-61614000D03*
X151787491Y-86214000D03*
%TD*%
D13*
%TO.N,GND*%
X117094000Y-72898000D03*
X138430000Y-68834000D03*
X135128000Y-70612000D03*
X114554000Y-74168000D03*
X118364000Y-68834000D03*
X113538000Y-67310000D03*
X159512000Y-88138000D03*
X145796000Y-86106000D03*
X128016000Y-75184000D03*
X133858000Y-70612000D03*
X114808000Y-77216000D03*
X120142000Y-87884000D03*
X153162000Y-75184000D03*
X141478000Y-69342000D03*
X125222000Y-75946000D03*
X136398000Y-68072000D03*
X124206000Y-81280000D03*
X107442000Y-71374000D03*
X116840000Y-77216000D03*
X121158000Y-68580000D03*
X129286000Y-87884000D03*
X153162000Y-72644000D03*
X113030000Y-79756000D03*
X123444000Y-76200000D03*
X134112000Y-75184000D03*
X133604000Y-72136000D03*
X150368000Y-75184000D03*
X112776000Y-73914000D03*
X121920000Y-75438000D03*
X126238000Y-64516000D03*
X117856000Y-65024000D03*
X116078000Y-85344000D03*
X119888000Y-77470000D03*
X108712000Y-80772000D03*
X133604000Y-62484000D03*
X155194000Y-88392000D03*
X113030000Y-69850000D03*
X113284000Y-64008000D03*
X106680000Y-68072000D03*
X127508000Y-77978000D03*
X119888000Y-59944000D03*
X120396000Y-73152000D03*
X133350000Y-77724000D03*
X127000000Y-69850000D03*
X141732000Y-65024000D03*
X116332000Y-70104000D03*
X112014000Y-77978000D03*
X139192000Y-76708000D03*
X137922000Y-87884000D03*
X107442000Y-75438000D03*
X143002000Y-59944000D03*
X136652000Y-78740000D03*
X106934000Y-79502000D03*
X120904000Y-65532000D03*
X140462000Y-81280000D03*
X145542000Y-61722000D03*
X127762000Y-72390000D03*
X133350000Y-82042000D03*
X135128000Y-75311000D03*
X159512000Y-59944000D03*
X146812000Y-87630000D03*
X130302000Y-59944000D03*
X135128000Y-77216000D03*
X141478000Y-78232000D03*
X117094000Y-80518000D03*
X129794000Y-67564000D03*
X113030000Y-81534000D03*
X150368000Y-72644000D03*
X138938000Y-72390000D03*
%TO.N,Net-(D2-Pad1)*%
X134112000Y-67818000D03*
X136652000Y-75184000D03*
X132797614Y-66757614D03*
X136652000Y-73152000D03*
%TD*%
D14*
%TO.N,Net-(C1-Pad2)*%
X109810000Y-77980000D02*
X105630000Y-77980000D01*
X105630000Y-69340000D02*
X109810000Y-69340000D01*
X105630000Y-77980000D02*
X105630000Y-69340000D01*
D15*
%TO.N,Net-(D2-Pad1)*%
X134112000Y-67818000D02*
X133858000Y-67818000D01*
X136652000Y-75184000D02*
X136652000Y-73152000D01*
X133858000Y-67818000D02*
X132797614Y-66757614D01*
%TD*%
%TA.AperFunction,Conductor*%
%TO.N,GND*%
G36*
X160282831Y-59150913D02*
G01*
X160319376Y-59201213D01*
X160324300Y-59232300D01*
X160324300Y-88849700D01*
X160305087Y-88908831D01*
X160254787Y-88945376D01*
X160223700Y-88950300D01*
X119472134Y-88950300D01*
X119416331Y-88933404D01*
X115244939Y-86152476D01*
X149829766Y-86152476D01*
X149840629Y-86428936D01*
X149890336Y-86701107D01*
X149891463Y-86704485D01*
X149950264Y-86880734D01*
X149977896Y-86963559D01*
X150101563Y-87211055D01*
X150258869Y-87438657D01*
X150261278Y-87441263D01*
X150384315Y-87574363D01*
X150446675Y-87641824D01*
X150449428Y-87644065D01*
X150593883Y-87761670D01*
X150661233Y-87816502D01*
X150898264Y-87959206D01*
X150901543Y-87960594D01*
X150901544Y-87960595D01*
X151149761Y-88065702D01*
X151149764Y-88065703D01*
X151153037Y-88067089D01*
X151156469Y-88067999D01*
X151156475Y-88068001D01*
X151343171Y-88117502D01*
X151420469Y-88137997D01*
X151695224Y-88170517D01*
X151911090Y-88165429D01*
X151968260Y-88164082D01*
X151968261Y-88164082D01*
X151971820Y-88163998D01*
X151975327Y-88163414D01*
X151975330Y-88163414D01*
X152133512Y-88137085D01*
X152244738Y-88118572D01*
X152248116Y-88117504D01*
X152248123Y-88117502D01*
X152505150Y-88036215D01*
X152505151Y-88036214D01*
X152508533Y-88035145D01*
X152757941Y-87915381D01*
X152987987Y-87761670D01*
X153194079Y-87577078D01*
X153372105Y-87365290D01*
X153518515Y-87130530D01*
X153519956Y-87127271D01*
X153628949Y-86880734D01*
X153628950Y-86880731D01*
X153630386Y-86877483D01*
X153705486Y-86611198D01*
X153742317Y-86336987D01*
X153746182Y-86214000D01*
X153726641Y-85938018D01*
X153708968Y-85855928D01*
X153669158Y-85671015D01*
X153669156Y-85671008D01*
X153668410Y-85667543D01*
X153572648Y-85407971D01*
X153441269Y-85164481D01*
X153276891Y-84941932D01*
X153274404Y-84939405D01*
X153274400Y-84939401D01*
X153085288Y-84747294D01*
X153085285Y-84747291D01*
X153082797Y-84744764D01*
X152862857Y-84576912D01*
X152621461Y-84441723D01*
X152363425Y-84341897D01*
X152359970Y-84341096D01*
X152359963Y-84341094D01*
X152097367Y-84280228D01*
X152097366Y-84280228D01*
X152093898Y-84279424D01*
X151915815Y-84264000D01*
X151821804Y-84255858D01*
X151821801Y-84255858D01*
X151818257Y-84255551D01*
X151693499Y-84262417D01*
X151545558Y-84270558D01*
X151545554Y-84270559D01*
X151542002Y-84270754D01*
X151498415Y-84279424D01*
X151274133Y-84324036D01*
X151274130Y-84324037D01*
X151270645Y-84324730D01*
X151009601Y-84416402D01*
X150764078Y-84543941D01*
X150538974Y-84704803D01*
X150338782Y-84895776D01*
X150336578Y-84898571D01*
X150336575Y-84898575D01*
X150169694Y-85110263D01*
X150169690Y-85110269D01*
X150167496Y-85113052D01*
X150165715Y-85116118D01*
X150165711Y-85116124D01*
X150135806Y-85167610D01*
X150028532Y-85352295D01*
X150027201Y-85355580D01*
X150027200Y-85355583D01*
X149925999Y-85605436D01*
X149925997Y-85605444D01*
X149924665Y-85608731D01*
X149857966Y-85877244D01*
X149857604Y-85880775D01*
X149857603Y-85880782D01*
X149851739Y-85938018D01*
X149829766Y-86152476D01*
X115244939Y-86152476D01*
X104388496Y-78914847D01*
X104349954Y-78866062D01*
X104343700Y-78831144D01*
X104343700Y-78061475D01*
X104625830Y-78061475D01*
X104627246Y-78067371D01*
X104627246Y-78067375D01*
X104664175Y-78221194D01*
X104665591Y-78227092D01*
X104668371Y-78232478D01*
X104668372Y-78232481D01*
X104740928Y-78373055D01*
X104743709Y-78378443D01*
X104747696Y-78383013D01*
X104851686Y-78502220D01*
X104851689Y-78502222D01*
X104855675Y-78506792D01*
X104995024Y-78604728D01*
X105000673Y-78606931D01*
X105000676Y-78606932D01*
X105148056Y-78664393D01*
X105153712Y-78666598D01*
X105283618Y-78683700D01*
X105972706Y-78683700D01*
X106051742Y-78674136D01*
X106093067Y-78669135D01*
X106093069Y-78669134D01*
X106099089Y-78668406D01*
X106104759Y-78666264D01*
X106104761Y-78666263D01*
X106252740Y-78610346D01*
X106252741Y-78610345D01*
X106258416Y-78608201D01*
X106398783Y-78511730D01*
X106438299Y-78467378D01*
X106491980Y-78436009D01*
X106513411Y-78433700D01*
X108676172Y-78433700D01*
X108735303Y-78452913D01*
X108751980Y-78468168D01*
X108781684Y-78502218D01*
X108781688Y-78502222D01*
X108785675Y-78506792D01*
X108925024Y-78604728D01*
X108930673Y-78606931D01*
X108930676Y-78606932D01*
X109078056Y-78664393D01*
X109083712Y-78666598D01*
X109213618Y-78683700D01*
X110402706Y-78683700D01*
X110481742Y-78674136D01*
X110523067Y-78669135D01*
X110523069Y-78669134D01*
X110529089Y-78668406D01*
X110534759Y-78666264D01*
X110534761Y-78666263D01*
X110682740Y-78610346D01*
X110682741Y-78610345D01*
X110688416Y-78608201D01*
X110828783Y-78511730D01*
X110942086Y-78384561D01*
X111021785Y-78234036D01*
X111063278Y-78068845D01*
X111063349Y-78055411D01*
X111064138Y-77904589D01*
X111064170Y-77898525D01*
X111060990Y-77885277D01*
X111025825Y-77738806D01*
X111024409Y-77732908D01*
X111018058Y-77720602D01*
X110949072Y-77586945D01*
X110946291Y-77581557D01*
X110868019Y-77491832D01*
X110838314Y-77457780D01*
X110838311Y-77457778D01*
X110834325Y-77453208D01*
X110694976Y-77355272D01*
X110689327Y-77353069D01*
X110689324Y-77353068D01*
X110541944Y-77295607D01*
X110541943Y-77295607D01*
X110536288Y-77293402D01*
X110406382Y-77276300D01*
X109536160Y-77276300D01*
X109477029Y-77257087D01*
X109440484Y-77206787D01*
X109440484Y-77144613D01*
X109477029Y-77094313D01*
X109497662Y-77082758D01*
X109570233Y-77052698D01*
X109575464Y-77048684D01*
X109575466Y-77048683D01*
X109685220Y-76964465D01*
X109690451Y-76960451D01*
X109782698Y-76840233D01*
X109840687Y-76700236D01*
X109860466Y-76550000D01*
X109840687Y-76399764D01*
X109782698Y-76259767D01*
X109690451Y-76139549D01*
X109685220Y-76135535D01*
X109575466Y-76051317D01*
X109575464Y-76051316D01*
X109570233Y-76047302D01*
X109564140Y-76044778D01*
X109564138Y-76044777D01*
X109516566Y-76025072D01*
X109430236Y-75989313D01*
X109423700Y-75988453D01*
X109423698Y-75988452D01*
X109320982Y-75974929D01*
X109320975Y-75974929D01*
X109317720Y-75974500D01*
X109242280Y-75974500D01*
X109239025Y-75974929D01*
X109239018Y-75974929D01*
X109136302Y-75988452D01*
X109136300Y-75988453D01*
X109129764Y-75989313D01*
X109043434Y-76025072D01*
X108995862Y-76044777D01*
X108995860Y-76044778D01*
X108989767Y-76047302D01*
X108984536Y-76051316D01*
X108984534Y-76051317D01*
X108874780Y-76135535D01*
X108869549Y-76139549D01*
X108777302Y-76259767D01*
X108719313Y-76399764D01*
X108699534Y-76550000D01*
X108719313Y-76700236D01*
X108777302Y-76840233D01*
X108869549Y-76960451D01*
X108874780Y-76964465D01*
X108984534Y-77048683D01*
X108984536Y-77048684D01*
X108989767Y-77052698D01*
X109107090Y-77101295D01*
X109154366Y-77141672D01*
X109168881Y-77202129D01*
X109145088Y-77259570D01*
X109093679Y-77291259D01*
X109090911Y-77291594D01*
X109043339Y-77309570D01*
X108937260Y-77349654D01*
X108937259Y-77349655D01*
X108931584Y-77351799D01*
X108791217Y-77448270D01*
X108782744Y-77457780D01*
X108751701Y-77492622D01*
X108698020Y-77523991D01*
X108676589Y-77526300D01*
X106513828Y-77526300D01*
X106454697Y-77507087D01*
X106438020Y-77491832D01*
X106408316Y-77457782D01*
X106408312Y-77457778D01*
X106404325Y-77453208D01*
X106264976Y-77355272D01*
X106259327Y-77353069D01*
X106259324Y-77353068D01*
X106147757Y-77309570D01*
X106099644Y-77270190D01*
X106083700Y-77215842D01*
X106083700Y-75184000D01*
X136043091Y-75184000D01*
X136063839Y-75341597D01*
X136124669Y-75488454D01*
X136221436Y-75614564D01*
X136347545Y-75711331D01*
X136494403Y-75772161D01*
X136500939Y-75773021D01*
X136500941Y-75773022D01*
X136645460Y-75792048D01*
X136652000Y-75792909D01*
X136658540Y-75792048D01*
X136803059Y-75773022D01*
X136803061Y-75773021D01*
X136809597Y-75772161D01*
X136956455Y-75711331D01*
X137082564Y-75614564D01*
X137179331Y-75488454D01*
X137240161Y-75341597D01*
X137260909Y-75184000D01*
X137240161Y-75026403D01*
X137179331Y-74879546D01*
X137082564Y-74753436D01*
X137020057Y-74705473D01*
X136984843Y-74654235D01*
X136980700Y-74625663D01*
X136980700Y-73710337D01*
X136999913Y-73651206D01*
X137020056Y-73630528D01*
X137082564Y-73582564D01*
X137179331Y-73456454D01*
X137240161Y-73309597D01*
X137260909Y-73152000D01*
X137240161Y-72994403D01*
X137179331Y-72847546D01*
X137082564Y-72721436D01*
X136956455Y-72624669D01*
X136809597Y-72563839D01*
X136803061Y-72562979D01*
X136803059Y-72562978D01*
X136658540Y-72543952D01*
X136652000Y-72543091D01*
X136645460Y-72543952D01*
X136500941Y-72562978D01*
X136500939Y-72562979D01*
X136494403Y-72563839D01*
X136410112Y-72598753D01*
X136353636Y-72622146D01*
X136353633Y-72622148D01*
X136347546Y-72624669D01*
X136221436Y-72721436D01*
X136124669Y-72847546D01*
X136063839Y-72994403D01*
X136043091Y-73152000D01*
X136063839Y-73309597D01*
X136124669Y-73456454D01*
X136221436Y-73582564D01*
X136283943Y-73630527D01*
X136319157Y-73681765D01*
X136323300Y-73710337D01*
X136323300Y-74625663D01*
X136304087Y-74684794D01*
X136283944Y-74705472D01*
X136221436Y-74753436D01*
X136124669Y-74879546D01*
X136063839Y-75026403D01*
X136043091Y-75184000D01*
X106083700Y-75184000D01*
X106083700Y-70103750D01*
X106102913Y-70044619D01*
X106148741Y-70009644D01*
X106252738Y-69970347D01*
X106252741Y-69970345D01*
X106258416Y-69968201D01*
X106398783Y-69871730D01*
X106438299Y-69827378D01*
X106491980Y-69796009D01*
X106513411Y-69793700D01*
X108676172Y-69793700D01*
X108735303Y-69812913D01*
X108751980Y-69828168D01*
X108781684Y-69862218D01*
X108781688Y-69862222D01*
X108785675Y-69866792D01*
X108925024Y-69964728D01*
X108930673Y-69966931D01*
X108930676Y-69966932D01*
X109078058Y-70024394D01*
X109078061Y-70024395D01*
X109083712Y-70026598D01*
X109089729Y-70027390D01*
X109093515Y-70028362D01*
X109146011Y-70061676D01*
X109168899Y-70119484D01*
X109153438Y-70179705D01*
X109106996Y-70218744D01*
X108989767Y-70267302D01*
X108984536Y-70271316D01*
X108984534Y-70271317D01*
X108874780Y-70355535D01*
X108869549Y-70359549D01*
X108777302Y-70479767D01*
X108719313Y-70619764D01*
X108699534Y-70770000D01*
X108719313Y-70920236D01*
X108777302Y-71060233D01*
X108869549Y-71180451D01*
X108874780Y-71184465D01*
X108984534Y-71268683D01*
X108984536Y-71268684D01*
X108989767Y-71272698D01*
X108995860Y-71275222D01*
X108995862Y-71275223D01*
X109043434Y-71294928D01*
X109129764Y-71330687D01*
X109136300Y-71331547D01*
X109136302Y-71331548D01*
X109239018Y-71345071D01*
X109239025Y-71345071D01*
X109242280Y-71345500D01*
X109317720Y-71345500D01*
X109320975Y-71345071D01*
X109320982Y-71345071D01*
X109423698Y-71331548D01*
X109423700Y-71331547D01*
X109430236Y-71330687D01*
X109516566Y-71294928D01*
X109564138Y-71275223D01*
X109564140Y-71275222D01*
X109570233Y-71272698D01*
X109575464Y-71268684D01*
X109575466Y-71268683D01*
X109685220Y-71184465D01*
X109690451Y-71180451D01*
X109782698Y-71060233D01*
X109840687Y-70920236D01*
X109860466Y-70770000D01*
X109840687Y-70619764D01*
X109782698Y-70479767D01*
X109690451Y-70359549D01*
X109685220Y-70355535D01*
X109575466Y-70271317D01*
X109575464Y-70271316D01*
X109570233Y-70267302D01*
X109497662Y-70237242D01*
X109450384Y-70196863D01*
X109435870Y-70136407D01*
X109459663Y-70078965D01*
X109512676Y-70046480D01*
X109536160Y-70043700D01*
X110402706Y-70043700D01*
X110481742Y-70034136D01*
X110523067Y-70029135D01*
X110523069Y-70029134D01*
X110529089Y-70028406D01*
X110534759Y-70026264D01*
X110534761Y-70026263D01*
X110682740Y-69970346D01*
X110682741Y-69970345D01*
X110688416Y-69968201D01*
X110828783Y-69871730D01*
X110942086Y-69744561D01*
X111021785Y-69594036D01*
X111063278Y-69428845D01*
X111063349Y-69415411D01*
X111064138Y-69264589D01*
X111064170Y-69258525D01*
X111060990Y-69245277D01*
X111025825Y-69098806D01*
X111024409Y-69092908D01*
X111018058Y-69080602D01*
X110949072Y-68946945D01*
X110946291Y-68941557D01*
X110868019Y-68851832D01*
X110838314Y-68817780D01*
X110838311Y-68817778D01*
X110834325Y-68813208D01*
X110694976Y-68715272D01*
X110689327Y-68713069D01*
X110689324Y-68713068D01*
X110541944Y-68655607D01*
X110541943Y-68655607D01*
X110536288Y-68653402D01*
X110406382Y-68636300D01*
X109217294Y-68636300D01*
X109138258Y-68645864D01*
X109096933Y-68650865D01*
X109096931Y-68650866D01*
X109090911Y-68651594D01*
X109085241Y-68653736D01*
X109085239Y-68653737D01*
X108937260Y-68709654D01*
X108937259Y-68709655D01*
X108931584Y-68711799D01*
X108791217Y-68808270D01*
X108782744Y-68817780D01*
X108751701Y-68852622D01*
X108698020Y-68883991D01*
X108676589Y-68886300D01*
X106513828Y-68886300D01*
X106454697Y-68867087D01*
X106438020Y-68851832D01*
X106408316Y-68817782D01*
X106408312Y-68817778D01*
X106404325Y-68813208D01*
X106264976Y-68715272D01*
X106259327Y-68713069D01*
X106259324Y-68713068D01*
X106111944Y-68655607D01*
X106111943Y-68655607D01*
X106106288Y-68653402D01*
X105976382Y-68636300D01*
X105287294Y-68636300D01*
X105208258Y-68645864D01*
X105166933Y-68650865D01*
X105166931Y-68650866D01*
X105160911Y-68651594D01*
X105155241Y-68653736D01*
X105155239Y-68653737D01*
X105007260Y-68709654D01*
X105007259Y-68709655D01*
X105001584Y-68711799D01*
X104861217Y-68808270D01*
X104747914Y-68935439D01*
X104668215Y-69085964D01*
X104626722Y-69251155D01*
X104626690Y-69257212D01*
X104626690Y-69257214D01*
X104626255Y-69340378D01*
X104625830Y-69421475D01*
X104627246Y-69427371D01*
X104627246Y-69427375D01*
X104664175Y-69581194D01*
X104665591Y-69587092D01*
X104668371Y-69592478D01*
X104668372Y-69592481D01*
X104740928Y-69733055D01*
X104743709Y-69738443D01*
X104747696Y-69743013D01*
X104851686Y-69862220D01*
X104851689Y-69862222D01*
X104855675Y-69866792D01*
X104995024Y-69964728D01*
X105000673Y-69966931D01*
X105000676Y-69966932D01*
X105112243Y-70010430D01*
X105160356Y-70049810D01*
X105176300Y-70104158D01*
X105176300Y-77216250D01*
X105157087Y-77275381D01*
X105111259Y-77310356D01*
X105007262Y-77349653D01*
X105007259Y-77349655D01*
X105001584Y-77351799D01*
X104861217Y-77448270D01*
X104747914Y-77575439D01*
X104668215Y-77725964D01*
X104626722Y-77891155D01*
X104626690Y-77897212D01*
X104626690Y-77897214D01*
X104626255Y-77980378D01*
X104625830Y-78061475D01*
X104343700Y-78061475D01*
X104343700Y-68495857D01*
X104362913Y-68436726D01*
X104391496Y-68410229D01*
X107071412Y-66757614D01*
X132188705Y-66757614D01*
X132209453Y-66915211D01*
X132270283Y-67062068D01*
X132367050Y-67188178D01*
X132493159Y-67284945D01*
X132640017Y-67345775D01*
X132646553Y-67346635D01*
X132646555Y-67346636D01*
X132791074Y-67365662D01*
X132797614Y-67366523D01*
X132875726Y-67356239D01*
X132936858Y-67367569D01*
X132959991Y-67384843D01*
X133496148Y-67921000D01*
X133522185Y-67966098D01*
X133522978Y-67969058D01*
X133523839Y-67975597D01*
X133584669Y-68122454D01*
X133681436Y-68248564D01*
X133807545Y-68345331D01*
X133954403Y-68406161D01*
X133960939Y-68407021D01*
X133960941Y-68407022D01*
X134105460Y-68426048D01*
X134112000Y-68426909D01*
X134118540Y-68426048D01*
X134263059Y-68407022D01*
X134263061Y-68407021D01*
X134269597Y-68406161D01*
X134416455Y-68345331D01*
X134542564Y-68248564D01*
X134639331Y-68122454D01*
X134700161Y-67975597D01*
X134720909Y-67818000D01*
X134700161Y-67660403D01*
X134639331Y-67513546D01*
X134542564Y-67387436D01*
X134416455Y-67290669D01*
X134269597Y-67229839D01*
X134263061Y-67228979D01*
X134263059Y-67228978D01*
X134118540Y-67209952D01*
X134112000Y-67209091D01*
X134105460Y-67209952D01*
X133960941Y-67228978D01*
X133960939Y-67228979D01*
X133954403Y-67229839D01*
X133865044Y-67266853D01*
X133861144Y-67268468D01*
X133799162Y-67273345D01*
X133751512Y-67246660D01*
X133424843Y-66919991D01*
X133396617Y-66864593D01*
X133396239Y-66835729D01*
X133406523Y-66757614D01*
X133385775Y-66600017D01*
X133324945Y-66453160D01*
X133228178Y-66327050D01*
X133102069Y-66230283D01*
X132955211Y-66169453D01*
X132948675Y-66168593D01*
X132948673Y-66168592D01*
X132804154Y-66149566D01*
X132797614Y-66148705D01*
X132791074Y-66149566D01*
X132646555Y-66168592D01*
X132646553Y-66168593D01*
X132640017Y-66169453D01*
X132555726Y-66204367D01*
X132499250Y-66227760D01*
X132499247Y-66227762D01*
X132493160Y-66230283D01*
X132367050Y-66327050D01*
X132270283Y-66453160D01*
X132209453Y-66600017D01*
X132188705Y-66757614D01*
X107071412Y-66757614D01*
X115512176Y-61552476D01*
X149829766Y-61552476D01*
X149840629Y-61828936D01*
X149890336Y-62101107D01*
X149891463Y-62104485D01*
X149950264Y-62280734D01*
X149977896Y-62363559D01*
X150101563Y-62611055D01*
X150258869Y-62838657D01*
X150261278Y-62841263D01*
X150384315Y-62974363D01*
X150446675Y-63041824D01*
X150449428Y-63044065D01*
X150593883Y-63161670D01*
X150661233Y-63216502D01*
X150898264Y-63359206D01*
X150901543Y-63360594D01*
X150901544Y-63360595D01*
X151149761Y-63465702D01*
X151149764Y-63465703D01*
X151153037Y-63467089D01*
X151156469Y-63467999D01*
X151156475Y-63468001D01*
X151343171Y-63517502D01*
X151420469Y-63537997D01*
X151695224Y-63570517D01*
X151911090Y-63565429D01*
X151968260Y-63564082D01*
X151968261Y-63564082D01*
X151971820Y-63563998D01*
X151975327Y-63563414D01*
X151975330Y-63563414D01*
X152133512Y-63537085D01*
X152244738Y-63518572D01*
X152248116Y-63517504D01*
X152248123Y-63517502D01*
X152505150Y-63436215D01*
X152505151Y-63436214D01*
X152508533Y-63435145D01*
X152757941Y-63315381D01*
X152987987Y-63161670D01*
X153194079Y-62977078D01*
X153372105Y-62765290D01*
X153518515Y-62530530D01*
X153519956Y-62527271D01*
X153628949Y-62280734D01*
X153628950Y-62280731D01*
X153630386Y-62277483D01*
X153705486Y-62011198D01*
X153742317Y-61736987D01*
X153746182Y-61614000D01*
X153726641Y-61338018D01*
X153708968Y-61255928D01*
X153669158Y-61071015D01*
X153669156Y-61071008D01*
X153668410Y-61067543D01*
X153572648Y-60807971D01*
X153441269Y-60564481D01*
X153276891Y-60341932D01*
X153274404Y-60339405D01*
X153274400Y-60339401D01*
X153085288Y-60147294D01*
X153085285Y-60147291D01*
X153082797Y-60144764D01*
X152862857Y-59976912D01*
X152621461Y-59841723D01*
X152363425Y-59741897D01*
X152359970Y-59741096D01*
X152359963Y-59741094D01*
X152097367Y-59680228D01*
X152097366Y-59680228D01*
X152093898Y-59679424D01*
X151915815Y-59664000D01*
X151821804Y-59655858D01*
X151821801Y-59655858D01*
X151818257Y-59655551D01*
X151693499Y-59662417D01*
X151545558Y-59670558D01*
X151545554Y-59670559D01*
X151542002Y-59670754D01*
X151498415Y-59679424D01*
X151274133Y-59724036D01*
X151274130Y-59724037D01*
X151270645Y-59724730D01*
X151009601Y-59816402D01*
X150764078Y-59943941D01*
X150538974Y-60104803D01*
X150338782Y-60295776D01*
X150336578Y-60298571D01*
X150336575Y-60298575D01*
X150169694Y-60510263D01*
X150169690Y-60510269D01*
X150167496Y-60513052D01*
X150165715Y-60516118D01*
X150165711Y-60516124D01*
X150135806Y-60567610D01*
X150028532Y-60752295D01*
X150027201Y-60755580D01*
X150027200Y-60755583D01*
X149925999Y-61005436D01*
X149925997Y-61005444D01*
X149924665Y-61008731D01*
X149857966Y-61277244D01*
X149857604Y-61280775D01*
X149857603Y-61280782D01*
X149851739Y-61338018D01*
X149829766Y-61552476D01*
X115512176Y-61552476D01*
X117863112Y-60102732D01*
X119413479Y-59146672D01*
X119466283Y-59131700D01*
X160223700Y-59131700D01*
X160282831Y-59150913D01*
G37*
%TD.AperFunction*%
%TD*%
M02*
